[
    {
        "id": 12345678987654321,
        "resource_state": 2,
        "name": "Lap 1",
        "activity": {
            "id": 12345678987654321,
            "resource_state": 1
        },
        "athlete": {
            "id": 12345678987654321,
            "resource_state": 1
        },
        "elapsed_time": 1691,
        "moving_time": 1587,
        "start_date": "2018-02-08T14:13:37Z",
        "start_date_local": "2018-02-08T06:13:37Z",
        "distance": 8046.72,
        "start_index": 0,
        "end_index": 1590,
        "total_elevation_gain": 270,
        "average_speed": 4.76,
        "max_speed": 9.4,
        "average_cadence": 79,
        "device_watts": true,
        "average_watts": 228.2,
        "lap_index": 1,
        "split": 1
    },
    {
        "id": 12345678987654322,
        "resource_state": 2,
        "name": "Lap 1",
        "activity": {
            "id": 12345678987654321,
            "resource_state": 1
        },
        "athlete": {
            "id": 12345678987654321,
            "resource_state": 1
        },
        "elapsed_time": 1691,
        "moving_time": 1587,
        "start_date": "2018-02-08T14:13:37Z",
        "start_date_local": "2018-02-08T06:13:37Z",
        "distance": 8046.72,
        "start_index": 0,
        "end_index": 1590,
        "total_elevation_gain": 270,
        "average_speed": 4.76,
        "max_speed": 9.4,
        "average_cadence": 79,
        "device_watts": true,
        "average_watts": 228.2,
        "lap_index": 1,
        "split": 1
    }
]