{
  "recent_run_totals": {
    "distance": 5.962134,
    "achievement_count": 9,
    "count": 1,
    "elapsed_time": 2,
    "elevation_gain": 7.0614014,
    "moving_time": 5
  },
  "all_run_totals": {
    "distance": 5.962134,
    "achievement_count": 9,
    "count": 1,
    "elapsed_time": 2,
    "elevation_gain": 7.0614014,
    "moving_time": 5
  },
  "recent_swim_totals": {
    "distance": 5.962134,
    "achievement_count": 9,
    "count": 1,
    "elapsed_time": 2,
    "elevation_gain": 7.0614014,
    "moving_time": 5
  },
  "biggest_ride_distance": 0.8008281904610115,
  "ytd_swim_totals": {
    "distance": 5.962134,
    "achievement_count": 9,
    "count": 1,
    "elapsed_time": 2,
    "elevation_gain": 7.0614014,
    "moving_time": 5
  },
  "all_swim_totals": {
    "distance": 5.962134,
    "achievement_count": 9,
    "count": 1,
    "elapsed_time": 2,
    "elevation_gain": 7.0614014,
    "moving_time": 5
  },
  "recent_ride_totals": {
    "distance": 5.962134,
    "achievement_count": 9,
    "count": 1,
    "elapsed_time": 2,
    "elevation_gain": 7.0614014,
    "moving_time": 5
  },
  "biggest_climb_elevation_gain": 6.027456183070403,
  "ytd_ride_totals": {
    "distance": 5.962134,
    "achievement_count": 9,
    "count": 1,
    "elapsed_time": 2,
    "elevation_gain": 7.0614014,
    "moving_time": 5
  },
  "all_ride_totals": {
    "distance": 5.962134,
    "achievement_count": 9,
    "count": 1,
    "elapsed_time": 2,
    "elevation_gain": 7.0614014,
    "moving_time": 5
  },
  "ytd_run_totals": {
    "distance": 5.962134,
    "achievement_count": 9,
    "count": 1,
    "elapsed_time": 2,
    "elevation_gain": 7.0614014,
    "moving_time": 5
  }
}
